…
## Let’s simulate a lot.

Let’s start with a for loop.

``` r
output = vector("list", length = 100)

for (i in 1:100){
  output[[i]] = sim_mean_sd(samp_size = 30)
}

bind_rows(output)
```

    ## # A tibble: 100 × 2
    ##     mean    sd
    ##    <dbl> <dbl>
    ##  1  3.24  3.75
    ##  2  3.77  3.80
    ##  3  3.90  3.80
    ##  4  3.57  4.67
    ##  5  3.13  3.27
    ##  6  3.57  3.65
    ##  7  3.31  4.27
    ##  8  3.65  3.92
    ##  9  1.89  3.62
    ## 10  3.22  3.79
    ## # … with 90 more rows
    ## # ℹ Use `print(n = ...)` to see more rows
…
